{
  "type": "service_account",
  "project_id": "thesis-328510",
  "private_key_id": "2631b8ec00669d1f020be55b30896c05a54b80a0",
  "private_key": "-----BEGIN PRIVATE KEY-----\nMIIEvQIBADANBgkqhkiG9w0BAQEFAASCBKcwggSjAgEAAoIBAQCLOkp40rvNHSnD\njDVfiB6CKGXE1qE1D5p3GjvyO6GjW16hhCCYQG/FH8/At3OJRbLS4mau2jARnOll\nsJZ3v8CPw8oDPzbuE/ASTFL3VaHU3qK+9ckrdlDSALOWJuQmmnVKqN9UYI3Km8ij\nRfKCdOoz85CqxHc143H+WMmkJ2PbU3IUSUalXKPHNfzx/dxo+cx8OcCCr6Us+N+u\n/hS4vn2sFdzdY0fxvVgvNZSpLmO6Gt0o3bNY1ZRpniARoOWjGZX7BL1TdsApoFSf\n+xlV5a0Wm0sump9sBPhFOgwjlXUGzgavFkjurWf0INyX1OYtGLwvGJo71Yf7nfKr\nVuLGpUOjAgMBAAECggEAP/1NhxSL3izeKhMB4ONl6jp486wVsZZ3TvBOxvljQ/pV\nlvRsKq3K8RW63X8zac8P7l7CBPEhEKdGmkc8ENOfxDOfYDionWmqeC5+H1FLLNQa\nhpvelswtPye1YniDeb6Z0/OjmVs7L/jDkU8vs4fasH/saKAdjjX4CYdzPbAg9AdL\nhAUoi9ytBE9d/SniY2ns/Gnwvm9CFwk9KB++OTfDiysIt9ClNaCOprFFsq0IU0eY\nEtPSfP2loto9b2AKQG7qxLuSv1zzJnXVYBzDL7zhcfb+dyMvq9UXEG0Qx+mOQqBe\nLeLJh6tPxryICowMnFlBX3rlqtEB9dz7BLaZUL5TgQKBgQDEhPTDqIokYpczEn/e\nTtVUMf1sh+TU1KApQyGM9XAbc0AnAi4z9wPc++s0arYEe2AMF3DoXHTStGz0mMDz\nqmkf9La0X9jNnt2SAVTM88odwEgjBLcb5k/cJeITCVlj1OlCEUnOUoivzikW2U2+\n/b+Ms91WDEONWpGUzPsxWxbcYwKBgQC1Xip2SAUeeE8vE0LPGY2oxjHqVU6hNPQk\nQpC9xlT7IQqB6U3enIxquiDwk00yZJOkO2K8YKg6d3KPIHja12wtjDRa8Upyx+Cr\neADT56cYh747mY+NoKSbBqLDUhZqNmJgkDnd4i1O3sBtsYGyAU9lnTVbtrDiK3+W\n39Tuitx/wQKBgB6tvuQ4kHBDr+T6M1oKJoWBVFW4FUIge2xVnYw62KiAYnh0f6//\nFOxPq5VAP3ANrp3Unvy3SkmGfyfkHOMtLEIf2tHn0Jmw/lgHuyxPtrLUTK6i0s8Z\nMkhk5ZkhMYJDP7Lfrgz2l34SihmWDOwPAvM9NQV03qrXg7ieE2zOEpCPAoGATTG1\nNP7WXu+qFElIaEliB/HDkQ+aFfcp6r0CSiO+S9z2UfDxGczb3xk1p++qLcatKHu2\nPKOPNsNcWRrjFZIXExPXvNVycIQuVg0PnSG99yzfhRKJDSjQpsMeR7AKpk5bdOou\nFwiLbERW9tlUcGUqW/+blFuf0cPd3GOMh7NGwoECgYEAmnlkJgutIqJrzIQeQncs\nB+pNLYGZFagDXAlCqBAztLUGamo315J37oNrL8OJoq+7N9E29nqLSbW+GJgUfIfH\nxYqCDR5TzfUG8LqeGT7zvNuBCyfrI+58OBr5mdWSOXjSY3rm51S46m2Cby4SY+5K\nXRSxdPcLFxsyl9Min+CLSS8=\n-----END PRIVATE KEY-----\n",
  "client_email": "thesis-aditya@thesis-328510.iam.gserviceaccount.com",
  "client_id": "101757898176532886455",
  "auth_uri": "https://accounts.google.com/o/oauth2/auth",
  "token_uri": "https://oauth2.googleapis.com/token",
  "auth_provider_x509_cert_url": "https://www.googleapis.com/oauth2/v1/certs",
  "client_x509_cert_url": "https://www.googleapis.com/robot/v1/metadata/x509/thesis-aditya%40thesis-328510.iam.gserviceaccount.com"
}
